<svg width="491" height="491" viewBox="0 0 491 491" fill="none" xmlns="http://www.w3.org/2000/svg">
<g clip-path="url(#clip0_310_20)">
<path d="M229.9 145.379L182.4 192.879C164.9 210.379 147.3 227.879 129.9 245.579C125.8 249.779 122.7 255.379 121.5 260.879C115.2 289.779 109.1 318.679 103 347.579L99.6 363.579C98 371.379 100.1 379.179 105.4 384.479C109.5 388.579 115.2 390.879 121.2 390.879C122.9 390.879 124.6 390.679 126.3 390.379L143.9 386.679C171.9 380.779 200 374.779 228 368.979C234.5 367.579 240 364.679 244.7 359.979C323.3 281.279 401.9 202.679 480.5 124.179C486.3 118.379 489.5 111.479 490.3 102.979C490.4 101.579 490.3 100.179 490 98.879C489.5 96.879 489.1 94.779 488.6 92.779C487.5 87.679 486.3 81.879 483.9 76.279C469.2 42.679 444.8 18.679 411.4 5.17901C404.7 2.47901 397.6 1.57901 391.4 0.779011L389.7 0.579011C380.7 -0.520989 372.5 2.47901 365.4 9.67901C320.4 54.879 275.1 100.179 229.9 145.379ZM386.4 24.679C386.6 24.679 386.7 24.679 386.9 24.679L388.6 24.879C393.8 25.479 398.6 26.079 402.4 27.679C429.6 38.679 449.6 58.279 461.7 85.879C463.1 89.079 464 93.179 464.9 97.479C465.2 99.079 465.6 100.679 465.9 102.279C465.5 104.079 464.8 105.279 463.4 106.579C384.7 185.079 306.1 263.779 227.5 342.379C226.2 343.679 225 344.279 223.2 344.679C195.1 350.579 167.1 356.479 139 362.379L124.2 365.479L127 352.379C133.1 323.579 139.2 294.679 145.4 265.879C145.6 264.979 146.4 263.579 147.3 262.579C164.7 244.979 182.1 227.479 199.6 210.079L247.1 162.579C292.4 117.279 337.7 71.979 382.9 26.579C384.8 24.979 385.7 24.679 386.4 24.679Z" fill="white"/>
<path d="M38.9 109.379H213.5C220.3 109.379 225.8 103.879 225.8 97.0791C225.8 90.2791 220.3 84.7791 213.5 84.7791H38.9C17.4 84.7791 0 102.279 0 123.679V451.079C0 472.579 17.5 489.979 38.9 489.979H366.2C387.7 489.979 405.1 472.479 405.1 451.079V283.579C405.1 276.779 399.6 271.279 392.8 271.279C386 271.279 380.5 276.779 380.5 283.579V451.079C380.5 458.979 374 465.479 366.1 465.479H38.9C31 465.479 24.5 458.979 24.5 451.079V123.779C24.5 115.879 31 109.379 38.9 109.379Z" fill="white"/>
</g>
<defs>
<clipPath id="clip0_310_20">
<rect width="490.337" height="490.337" fill="white"/>
</clipPath>
</defs>
</svg>
